Project1
…
I used a full join to join my datasets by the "State" variable because I wanted to keep all of the rows in both bottom and omitted all of the rows that did not have an NFL team. The potenial problem of this is that when trying to find the mean of Superbowl wins or appearances, it does not take into account states without a football team.

FBall_States%>%summarize_all(n_distinct)

## # A tibble: 1 x 5
##   State NFL_Team SB_Appearances SB_Wins Population
##   <int>    <int>          <int>   <int>      <int>
## 1    23       32              9       7         23

FBall_States%>%group_by(NFL_Team)%>%summarize(max_SB_wins=max(SB_Wins))%>%arrange(-max_SB_wins)

## `summarise()` ungrouping output (override with `.groups` argument)

## # A tibble: 32 x 2
##    NFL_Team      max_SB_wins
##    <chr>               <dbl>
##  1 Patriots                6
##  2 Steelers                6
##  3 49ers                   5
##  4 Cowboys                 5
##  5 Giants                  4
##  6 Packers                 4
##  7 Broncos                 3
##  8 Football Team           3
##  9 Raiders                 3
## 10 Chiefs                  2
## # … with 22 more rows
…
FBall_States %>%group_by(State) %>%summarize(sum_SB_wins=sum(SB_Wins,na.rm=T))

## `summarise()` ungrouping output (override with `.groups` argument)

## # A tibble: 23 x 2
##    State sum_SB_wins
##    <chr>       <dbl>
##  1 AZ              0
##  2 CA              6
##  3 CO              3
##  4 DC              3
##  5 FL              3
##  6 GA              0
##  7 IL              1
##  8 IN              2
##  9 LA              1
## 10 MA              6
## # … with 13 more rows

SB_Wins_State<-FBall_States %>%group_by(State) %>%summarize(sum_SB_wins=sum(SB_Wins,na.rm=T))

## `summarise()` ungrouping output (override with `.groups` argument)

SB_Wins_State%>%arrange(-sum_SB_wins)

## # A tibble: 23 x 2
##    State sum_SB_wins
##    <chr>       <dbl>
##  1 PA              7
##  2 CA              6
##  3 MA              6
##  4 NY              5
##  5 TX              5
##  6 WI              4
##  7 CO              3
##  8 DC              3
##  9 FL              3
## 10 NV              3
## # … with 13 more rows

FBall_States %>%group_by(State) %>%summarize(mean_SB_wins=mean(SB_Wins,na.rm=T))%>%arrange(-mean_SB_wins)

## `summarise()` ungrouping output (override with `.groups` argument)

## # A tibble: 23 x 2
##    State mean_SB_wins
##    <chr>        <dbl>
##  1 MA             6  
##  2 WI             4  
##  3 PA             3.5
##  4 CO             3  
##  5 DC             3  
##  6 NV             3  
##  7 TX             2.5
##  8 CA             2  
##  9 IN             2  
## 10 MD             2  
## # … with 13 more rows
…
FBall_States %>%filter(State=="MA")%>%select(SB_Wins,NFL_Team)

## # A tibble: 1 x 2
##   SB_Wins NFL_Team
##     <dbl> <chr>   
## 1       6 Patriots

FBall_States %>%group_by(NFL_Team)%>%summarize(max_SB_app=max(SB_Appearances))%>%arrange(-max_SB_app)

## `summarise()` ungrouping output (override with `.groups` argument)

## # A tibble: 32 x 2
##    NFL_Team      max_SB_app
##    <chr>              <dbl>
##  1 Patriots              11
##  2 Broncos                8
##  3 Cowboys                8
##  4 Steelers               8
##  5 49ers                  7
##  6 Dolphins               5
##  7 Football Team          5
##  8 Giants                 5
##  9 Packers                5
## 10 Raiders                5
## # … with 22 more rows

FBall_States %>%group_by(NFL_Team)%>%summarize(max_SB_app=max(SB_Appearances))%>%arrange(max_SB_app)

## `summarise()` ungrouping output (override with `.groups` argument)

## # A tibble: 32 x 2
##    NFL_Team   max_SB_app
##    <chr>           <dbl>
##  1 Browns              0
##  2 Jaguars             0
##  3 Lions               0
##  4 Texans              0
##  5 Buccaneers          1
##  6 Cardinals           1
##  7 Chargers            1
##  8 Jets                1
##  9 Saints              1
## 10 Titans              1
## # … with 22 more rows
…
Appearanceless<-FBall_States%>% group_by(NFL_Team)%>%summarize(min_SB_appearance=min(SB_Appearances))%>%arrange(min_SB_appearance)

## `summarise()` ungrouping output (override with `.groups` argument)

Winless<-FBall_States%>%filter(SB_Wins==0)%>% group_by(NFL_Team)%>%summarize()

## `summarise()` ungrouping output (override with `.groups` argument)

Appearanceless

## # A tibble: 32 x 2
##    NFL_Team   min_SB_appearance
##    <chr>                  <dbl>
##  1 Browns                     0
##  2 Jaguars                    0
##  3 Lions                      0
##  4 Texans                     0
##  5 Buccaneers                 1
##  6 Cardinals                  1
##  7 Chargers                   1
##  8 Jets                       1
##  9 Saints                     1
## 10 Titans                     1
## # … with 22 more rows
…
